<?xml version="1.0" standalone="no"?>
<!DOCTYPE svg PUBLIC "-//W3C//DTD SVG 20010904//EN"
 "http://www.w3.org/TR/2001/REC-SVG-20010904/DTD/svg10.dtd">
<svg version="1.0" xmlns="http://www.w3.org/2000/svg"
 width="4440.000000pt" height="4440.000000pt" viewBox="0 0 4440.000000 4440.000000"
 preserveAspectRatio="xMidYMid meet">
<metadata>
Created by potrace 1.11, written by Peter Selinger 2001-2013
</metadata>
<g transform="translate(0.000000,4440.000000) scale(0.100000,-0.100000)"
fill="#000000" stroke="none">
<path d="M0 22195 l0 -14875 1878 0 1877 0 0 6320 0 6320 6057 0 c4839 0 6058
3 6059 13 0 15 0 3226 0 3248 -1 14 -536 16 -6038 17 -3321 0 -6047 1 -6058 1
-20 1 -20 8 -20 5266 0 3506 3 5265 10 5265 13 1 14303 1 14336 0 l27 0 0
-11750 c0 -6462 -2 -11750 -3 -11750 -2 0 -106 -23 -232 -51 -125 -28 -277
-62 -338 -76 -60 -13 -180 -39 -265 -59 -85 -19 -195 -44 -245 -55 -49 -11
-108 -25 -130 -30 -22 -5 -49 -11 -60 -14 -11 -2 -81 -18 -155 -35 -74 -17
-198 -44 -275 -61 -77 -16 -158 -35 -180 -40 -22 -6 -49 -13 -60 -15 -11 -2
-211 -46 -445 -99 -234 -53 -434 -97 -445 -100 -235 -49 -690 -157 -694 -164
-5 -7 -6 -2105 -2 -2144 1 -8 20177 -3 20281 6 36 2 126 8 200 12 191 10 183
9 470 30 25 2 74 6 110 9 36 4 92 9 125 12 33 3 76 7 95 9 19 2 64 7 100 10
36 3 83 8 105 11 74 9 110 13 165 19 30 3 82 10 115 15 33 5 84 12 114 15 30
4 61 8 70 10 9 1 41 6 71 10 30 4 64 9 75 11 11 2 40 7 65 10 25 3 54 8 65 10
11 2 34 6 50 9 17 3 93 16 170 30 77 13 154 26 170 29 17 3 86 17 155 31 69
15 136 28 150 31 14 2 43 8 65 14 100 24 212 50 235 54 14 3 70 17 125 31 55
14 109 28 120 30 95 21 500 143 715 215 370 123 724 262 1027 401 83 39 505
249 553 276 19 11 62 35 95 53 277 154 673 412 940 612 447 337 813 673 1161
1068 60 69 128 148 149 175 22 28 43 52 46 55 4 3 24 28 45 55 279 363 495
693 676 1030 68 127 218 431 218 441 0 3 13 33 28 67 16 34 55 127 87 207 31
80 61 154 65 165 60 150 217 646 234 739 3 14 7 29 10 34 3 5 7 19 10 33 3 13
21 92 40 176 20 84 38 167 41 185 3 18 8 40 10 48 11 39 83 464 90 535 4 33 8
67 10 75 2 8 7 42 11 75 3 33 8 67 9 76 2 8 6 53 10 100 4 46 8 91 10 99 1 8
6 56 10 105 3 50 8 115 11 145 27 354 27 1096 -1 1465 -12 170 -16 223 -20
250 -2 17 -7 57 -10 90 -3 33 -8 74 -11 90 -2 17 -6 50 -9 75 -2 25 -7 56 -9
70 -3 14 -7 48 -11 75 -3 28 -8 57 -10 65 -2 8 -6 32 -9 53 -13 84 -19 119
-48 262 -16 83 -31 160 -34 173 -28 139 -109 434 -176 642 -418 1298 -1213
2358 -2328 3107 -120 80 -279 183 -284 183 -2 0 -45 25 -95 55 -51 30 -96 55
-101 55 -5 0 -15 6 -22 13 -46 45 -665 341 -935 448 -13 5 -33 13 -45 19 -13
5 -48 19 -78 30 -30 11 -64 25 -75 30 -87 40 -681 235 -915 300 -19 5 -66 18
-105 29 -199 57 -687 170 -925 215 -74 15 -146 28 -160 31 -14 2 -61 12 -105
20 -68 13 -111 21 -135 24 -7 1 -7 201 0 201 8 0 380 78 455 95 1233 286 2262
769 3055 1434 282 236 571 530 787 801 45 57 135 174 168 220 22 30 42 57 45
60 13 12 187 281 257 397 157 262 342 652 456 959 82 219 189 565 213 687 2
10 6 27 9 37 7 21 6 20 39 170 29 136 34 158 46 228 5 30 11 61 14 70 3 10 7
40 11 67 3 28 8 57 10 65 2 8 6 38 10 65 5 47 8 68 20 139 2 16 7 59 10 95 4
36 8 77 10 91 2 14 7 61 10 105 4 44 9 97 11 118 22 226 32 767 19 1066 -8
187 -14 300 -19 361 -3 30 -8 89 -11 130 -10 132 -43 416 -60 515 -2 11 -6 40
-9 65 -10 69 -25 156 -46 260 -11 52 -21 106 -24 120 -22 117 -82 362 -127
520 -32 113 -123 392 -138 425 -5 11 -22 54 -37 95 -46 126 -130 322 -206 477
-370 766 -883 1405 -1572 1957 -80 64 -149 116 -155 116 -5 0 -11 4 -13 8 -4
10 -141 108 -278 199 -494 328 -1144 637 -1835 874 -240 81 -578 185 -770 235
-27 7 -111 28 -186 48 -75 19 -147 37 -160 40 -13 3 -73 17 -134 31 -108 25
-370 83 -410 90 -11 2 -45 8 -75 15 -30 6 -66 13 -80 15 -14 2 -70 12 -125 23
-55 11 -116 23 -135 26 -19 3 -87 14 -150 25 -63 11 -133 22 -155 25 -23 4
-52 8 -65 11 -13 3 -42 7 -65 10 -22 4 -51 8 -65 10 -78 12 -162 25 -209 30
-30 4 -63 9 -75 11 -12 2 -46 6 -76 9 -30 3 -80 10 -110 15 -30 5 -84 12 -120
16 -36 3 -72 7 -80 9 -8 1 -46 6 -85 10 -38 4 -83 8 -100 10 -16 2 -59 6 -95
10 -36 3 -76 8 -90 10 -14 2 -62 7 -107 10 -46 3 -91 8 -100 9 -10 2 -56 7
-103 11 -47 3 -101 8 -120 10 -86 8 -241 20 -385 29 -49 4 -117 9 -150 11 -33
3 -100 7 -150 9 -49 3 -142 8 -205 11 -207 11 -283 14 -450 20 -91 3 -214 9
-275 12 -60 4 -7552 8 -16647 10 l-16538 3 0 -14875z m32930 11671 c91 -3 226
-8 300 -12 74 -3 164 -7 200 -9 109 -4 303 -15 345 -20 22 -2 84 -7 137 -10
54 -4 110 -8 125 -10 16 -2 66 -6 113 -10 47 -4 96 -8 110 -10 14 -2 59 -7
100 -10 41 -3 82 -8 90 -10 8 -2 44 -7 80 -10 36 -4 76 -8 90 -10 14 -2 50 -7
80 -10 30 -3 66 -8 80 -10 41 -6 113 -16 140 -20 14 -3 57 -9 95 -15 39 -5 81
-12 95 -14 14 -3 41 -7 60 -10 69 -11 325 -57 390 -71 14 -3 36 -8 50 -10 14
-3 40 -8 59 -10 18 -3 36 -7 40 -10 6 -3 92 -22 181 -40 109 -21 540 -145 740
-211 129 -44 432 -159 495 -189 17 -7 62 -28 100 -46 462 -209 853 -468 1165
-773 342 -334 582 -687 775 -1141 112 -262 235 -702 270 -963 3 -20 7 -48 9
-62 9 -45 31 -229 40 -330 26 -265 26 -866 1 -1135 -15 -157 -27 -278 -30
-298 -2 -12 -6 -44 -10 -72 -16 -132 -43 -287 -71 -420 -9 -38 -18 -81 -20
-95 -3 -14 -7 -33 -10 -42 -3 -9 -7 -25 -9 -35 -26 -119 -118 -415 -178 -573
-55 -144 -187 -423 -241 -509 -14 -22 -26 -43 -26 -47 0 -3 -43 -70 -96 -150
-393 -593 -883 -991 -1644 -1337 -217 -98 -675 -257 -930 -322 -53 -14 -228
-58 -240 -61 -39 -9 -258 -56 -280 -60 -14 -3 -70 -14 -125 -25 -55 -11 -111
-21 -125 -24 -14 -2 -70 -11 -125 -20 -119 -19 -137 -22 -195 -30 -25 -3 -56
-8 -70 -10 -14 -2 -45 -7 -70 -10 -25 -3 -63 -8 -85 -11 -22 -3 -56 -7 -75 -9
-19 -2 -53 -6 -75 -9 -67 -9 -138 -17 -190 -21 -71 -5 -186 -16 -215 -20 -14
-3 -68 -7 -120 -10 -52 -3 -122 -7 -155 -10 -105 -8 -383 -23 -605 -31 -85 -4
-1502 -7 -3148 -8 -2653 -1 -2995 1 -3001 14 -8 18 -7 9433 1 9446 7 10 5322
11 5608 0z m-9375 -96 c7 0 10 -3979 9 -11922 -1 -6558 -2 -11929 -3 -11936
-1 -7 -10 -11 -23 -8 -26 5 -303 68 -423 95 -44 11 -134 31 -200 46 -189 42
-275 61 -505 114 -118 27 -228 52 -245 55 -16 3 -50 10 -75 16 -50 13 -69 17
-120 26 -19 4 -42 10 -50 14 -13 7 -15 1321 -14 11747 1 6456 2 11743 3 11748
1 7 279 9 818 8 450 -1 823 -2 828 -3z m10240 -12513 c61 -4 157 -9 215 -12
208 -10 382 -22 470 -31 25 -2 72 -6 105 -8 33 -3 86 -7 118 -10 31 -3 83 -9
115 -12 31 -3 71 -7 87 -9 17 -3 56 -7 87 -10 32 -2 68 -7 80 -9 13 -3 50 -8
83 -11 59 -6 91 -10 150 -20 17 -3 50 -8 75 -11 25 -3 83 -11 130 -19 47 -8
103 -17 125 -20 38 -5 57 -9 115 -20 14 -3 36 -7 50 -10 14 -2 50 -9 80 -15
30 -7 69 -14 85 -16 17 -3 46 -9 65 -14 19 -5 51 -12 70 -15 19 -3 62 -12 95
-21 33 -8 69 -16 80 -18 58 -12 171 -40 322 -82 92 -25 175 -47 183 -49 8 -2
116 -37 240 -78 671 -223 1227 -505 1690 -857 63 -49 127 -99 141 -112 14 -12
47 -41 75 -63 68 -55 306 -293 391 -390 73 -84 193 -236 233 -295 13 -19 27
-37 30 -40 4 -3 49 -72 100 -155 142 -227 275 -496 373 -755 54 -141 143 -427
162 -520 2 -8 8 -33 13 -55 12 -44 48 -220 57 -275 3 -19 7 -46 10 -60 3 -14
7 -38 9 -55 6 -41 18 -117 21 -135 1 -8 6 -44 10 -80 3 -36 8 -76 10 -90 38
-280 48 -884 20 -1290 -9 -127 -23 -287 -30 -330 -2 -14 -6 -52 -10 -85 -14
-130 -57 -388 -95 -570 -25 -116 -21 -102 -55 -230 -15 -55 -28 -104 -29 -110
-1 -5 -11 -37 -21 -70 -10 -33 -19 -64 -21 -70 -8 -38 -86 -255 -136 -380 -55
-139 -203 -450 -264 -555 -265 -457 -596 -853 -974 -1166 -336 -279 -721 -517
-1140 -706 -30 -14 -73 -33 -95 -43 -55 -24 -228 -96 -240 -99 -5 -2 -17 -6
-25 -10 -15 -6 -213 -76 -285 -101 -62 -20 -265 -82 -315 -95 -25 -7 -52 -15
-60 -18 -8 -3 -19 -6 -25 -7 -5 -2 -66 -17 -135 -35 -69 -17 -132 -33 -140
-35 -8 -2 -44 -10 -80 -19 -36 -8 -76 -17 -90 -20 -14 -2 -72 -14 -130 -26
-126 -26 -109 -23 -300 -55 -167 -28 -165 -28 -285 -45 -44 -6 -91 -13 -105
-15 -24 -4 -70 -10 -147 -20 -21 -2 -65 -7 -98 -10 -33 -3 -71 -7 -85 -10 -14
-2 -61 -7 -105 -10 -43 -3 -93 -8 -110 -10 -16 -2 -66 -7 -110 -10 -44 -3
-102 -8 -130 -10 -48 -4 -192 -13 -320 -20 -272 -15 -855 -18 -3657 -19 -2841
-1 -3198 1 -3199 14 -3 56 -3 10738 0 10748 3 11 588 12 3185 9 1749 -2 3231
-6 3291 -10z"/>
</g>
</svg>
